jetson/measurements/v3/inference.csv

X,CH1,CH2,Start,Increment,
Sequence,Volt,Volt,8.070000e-01,5.000000e-04
0,9.54e+00,9.59e+00,
1,9.57e+00,9.64e+00,
2,9.56e+00,9.60e+00,
3,9.54e+00,9.64e+00,
4,9.57e+00,9.59e+00,
5,9.54e+00,9.64e+00,
6,9.53e+00,9.60e+00,
7,9.57e+00,9.64e+00,
8,9.56e+00,9.64e+00,
9,9.53e+00,9.60e+00,
10,9.52e+00,9.64e+00,
11,9.56e+00,9.59e+00,
12,9.52e+00,9.60e+00,
13,9.56e+00,9.64e+00,
14,9.57e+00,9.64e+00,
15,9.54e+00,9.60e+00,
16,9.57e+00,9.64e+00,
17,9.54e+00,9.60e+00,
18,9.57e+00,9.59e+00,
19,9.54e+00,9.64e+00,
20,9.56e+00,9.64e+00,
21,9.54e+00,9.59e+00,
22,9.54e+00,9.64e+00,
23,9.57e+00,9.59e+00,
24,9.56e+00,9.60e+00,
25,9.53e+00,9.64e+00,
26,9.53e+00,9.64e+00,
27,9.56e+00,9.59e+00,
28,9.56e+00,9.64e+00,
29,9.54e+00,9.60e+00,
30,9.57e+00,9.64e+00,
31,9.54e+00,9.59e+00,
32,9.54e+00,9.60e+00,
33,9.57e+00,9.64e+00,
34,9.56e+00,9.64e+00,
35,9.54e+00,9.59e+00,
36,9.56e+00,9.60e+00,
37,9.53e+00,9.64e+00,
38,9.54e+00,9.64e+00,
39,9.57e+00,9.60e+00,
40,9.53e+00,9.64e+00,
41,9.56e+00,9.60e+00,
42,9.57e+00,9.64e+00,
43,9.54e+00,9.60e+00,
44,9.56e+00,9.64e+00,
45,9.53e+00,9.59e+00,
46,9.57e+00,9.59e+00,
47,9.53e+00,9.64e+00,
48,9.53e+00,9.63e+00,
49,9.56e+00,9.59e+00,
50,9.57e+00,9.64e+00,
51,9.53e+00,9.59e+00,
52,9.53e+00,9.64e+00,
53,9.56e+00,9.60e+00,
54,9.53e+00,9.60e+00,
55,9.56e+00,9.64e+00,
56,9.51e+00,9.64e+00,
57,9.56e+00,9.59e+00,
58,9.53e+00,9.60e+00,
59,9.56e+00,9.64e+00,
60,9.56e+00,9.60e+00,
61,9.53e+00,9.64e+00,
62,9.56e+00,9.60e+00,
63,9.53e+00,9.64e+00,
64,9.54e+00,9.60e+00,
65,9.56e+00,9.64e+00,
66,9.56e+00,9.59e+00,
67,9.54e+00,9.64e+00,
68,9.56e+00,9.60e+00,
69,9.53e+00,9.64e+00,
70,9.56e+00,9.64e+00,
71,9.54e+00,9.59e+00,
72,9.57e+00,9.60e+00,
73,9.53e+00,9.64e+00,
74,9.52e+00,9.59e+00,
75,9.56e+00,9.64e+00,
76,9.53e+00,9.63e+00,
77,9.56e+00,9.60e+00,
78,9.57e+00,9.64e+00,
79,9.54e+00,9.60e+00,
80,9.56e+00,9.64e+00,
81,9.53e+00,9.60e+00,
82,9.57e+00,9.64e+00,
83,9.53e+00,9.60e+00,
84,9.57e+00,9.64e+00,
85,9.53e+00,9.60e+00,
86,9.56e+00,9.64e+00,
87,9.53e+00,9.59e+00,
88,9.56e+00,9.64e+00,
89,9.54e+00,9.59e+00,
90,9.53e+00,9.64e+00,
91,9.57e+00,9.60e+00,
92,9.53e+00,9.64e+00,
93,9.56e+00,9.59e+00,
94,9.53e+00,9.59e+00,
95,9.57e+00,9.64e+00,
96,9.57e+00,9.64e+00,
97,9.54e+00,9.59e+00,
98,9.57e+00,9.64e+00,
99,9.53e+00,9.60e+00,
100,9.50e+00,9.59e+00,
101,9.56e+00,9.64e+00,
102,9.53e+00,9.60e+00,
103,9.56e+00,9.64e+00,
104,9.54e+00,9.64e+00,
105,9.57e+00,9.60e+00,
106,9.57e+00,9.63e+00,
107,9.51e+00,9.59e+00,
108,9.53e+00,9.64e+00,
109,9.56e+00,9.60e+00,
110,9.57e+00,9.59e+00,
111,9.53e+00,9.64e+00,
112,9.53e+00,9.60e+00,
113,9.57e+00,9.64e+00,
114,9.56e+00,9.60e+00,
115,9.54e+00,9.64e+00,
116,9.53e+00,9.64e+00,
117,9.56e+00,9.60e+00,
118,9.56e+00,9.59e+00,
119,9.54e+00,9.64e+00,
120,9.53e+00,9.64e+00,
121,9.57e+00,9.60e+00,
122,9.53e+00,9.64e+00,
123,9.57e+00,9.60e+00,
124,9.53e+00,9.64e+00,
125,9.57e+00,9.59e+00,
126,9.57e+00,9.59e+00,
127,9.53e+00,9.64e+00,
128,9.57e+00,9.64e+00,
129,9.53e+00,9.59e+00,
130,9.57e+00,9.64e+00,
131,9.53e+00,9.59e+00,
132,9.54e+00,9.60e+00,
133,9.57e+00,9.64e+00,
134,9.57e+00,9.64e+00,
135,9.54e+00,9.59e+00,
136,9.57e+00,9.64e+00,
137,9.53e+00,9.60e+00,
138,9.52e+00,9.59e+00,
139,9.56e+00,9.64e+00,
140,9.57e+00,9.64e+00,
141,9.54e+00,9.59e+00,
142,9.57e+00,9.64e+00,
143,9.54e+00,9.60e+00,
144,9.57e+00,9.60e+00,
145,9.52e+00,9.64e+00,
146,9.54e+00,9.59e+00,
147,9.57e+00,9.64e+00,
148,9.57e+00,9.64e+00,
149,9.53e+00,9.60e+00,
150,9.57e+00,9.64e+00,
151,9.53e+00,9.60e+00,
152,9.57e+00,9.64e+00,
153,9.53e+00,9.59e+00,
154,9.56e+00,9.60e+00,
155,9.54e+00,9.64e+00,
156,9.56e+00,9.59e+00,
157,9.53e+00,9.64e+00,
158,9.53e+00,9.60e+00,
159,9.56e+00,9.64e+00,
160,9.53e+00,9.60e+00,
161,9.56e+00,9.64e+00,
162,9.53e+00,9.60e+00,
163,9.56e+00,9.64e+00,
164,9.56e+00,9.59e+00,
165,9.52e+00,9.64e+00,
166,9.56e+00,9.60e+00,
167,9.54e+00,9.64e+00,
168,9.53e+00,9.60e+00,
169,9.56e+00,9.64e+00,
170,9.56e+00,9.60e+00,
171,9.53e+00,9.64e+00,
172,9.57e+00,9.60e+00,
173,9.53e+00,9.64e+00,
174,9.56e+00,9.60e+00,
175,9.52e+00,9.64e+00,
176,9.57e+00,9.64e+00,
177,9.53e+00,9.59e+00,
178,9.56e+00,9.64e+00,
179,9.53e+00,9.59e+00,
180,9.53e+00,9.64e+00,
181,9.56e+00,9.60e+00,
182,9.57e+00,9.64e+00,
183,9.53e+00,9.60e+00,
184,9.53e+00,9.64e+00,
185,9.57e+00,9.60e+00,
186,9.56e+00,9.64e+00,
187,9.52e+00,9.58e+00,
188,9.56e+00,9.64e+00,
189,9.51e+00,9.60e+00,
190,9.53e+00,9.60e+00,
191,9.56e+00,9.64e+00,
192,9.53e+00,9.64e+00,
193,9.57e+00,9.59e+00,
194,9.57e+00,9.64e+00,
195,9.53e+00,9.59e+00,
196,9.57e+00,9.64e+00,
197,9.53e+00,9.60e+00,
198,9.53e+00,9.64e+00,
199,9.57e+00,9.59e+00,
200,9.56e+00,9.60e+00,
201,9.53e+00,9.64e+00,
202,9.52e+00,9.59e+00,
203,9.56e+00,9.64e+00,
204,9.54e+00,9.64e+00,
205,9.57e+00,9.60e+00,
206,9.56e+00,9.60e+00,
207,9.53e+00,9.64e+00,
208,9.56e+00,9.64e+00,
209,9.53e+00,9.59e+00,
210,9.57e+00,9.64e+00,
211,9.53e+00,9.60e+00,
212,9.54e+00,9.64e+00,
213,9.57e+00,9.59e+00,
214,9.57e+00,9.64e+00,
215,9.53e+00,9.59e+00,
216,9.57e+00,9.59e+00,
217,9.54e+00,9.64e+00,
218,9.57e+00,9.60e+00,
219,9.53e+00,9.64e+00,
220,9.57e+00,9.64e+00,
221,9.53e+00,9.60e+00,
222,9.57e+00,9.60e+00,
223,9.54e+00,9.64e+00,
224,9.53e+00,9.60e+00,
225,9.57e+00,9.64e+00,
226,9.57e+00,9.64e+00,
227,9.52e+00,9.60e+00,
228,9.53e+00,9.60e+00,
229,9.57e+00,9.64e+00,
230,9.53e+00,9.64e+00,
231,9.57e+00,9.60e+00,
232,9.57e+00,9.64e+00,
233,9.52e+00,9.60e+00,
234,9.57e+00,9.64e+00,
235,9.53e+00,9.60e+00,
236,9.57e+00,9.64e+00,
237,9.54e+00,9.60e+00,
238,9.57e+00,9.60e+00,
239,9.54e+00,9.64e+00,
240,9.57e+00,9.64e+00,
241,9.54e+00,9.59e+00,
242,9.57e+00,9.59e+00,
243,9.54e+00,9.64e+00,
244,9.54e+00,9.60e+00,
245,9.57e+00,9.65e+00,
246,9.57e+00,9.64e+00,
247,9.54e+00,9.60e+00,
248,9.57e+00,9.64e+00,
249,9.54e+00,9.60e+00,
250,9.57e+00,9.60e+00,
251,9.54e+00,9.64e+00,
252,9.57e+00,9.64e+00,
253,9.54e+00,9.60e+00,
254,9.57e+00,9.60e+00,
255,9.53e+00,9.64e+00,
256,9.54e+00,9.59e+00,
257,9.56e+00,9.64e+00,
258,9.57e+00,9.59e+00,
259,9.53e+00,9.64e+00,
260,9.54e+00,9.64e+00,
261,9.57e+00,9.59e+00,
262,9.57e+00,9.64e+00,
263,9.54e+00,9.59e+00,
264,9.56e+00,9.64e+00,
265,9.53e+00,9.59e+00,
266,9.53e+00,9.64e+00,
267,9.57e+00,9.59e+00,
268,9.53e+00,9.59e+00,
269,9.57e+00,9.64e+00,
270,9.53e+00,9.60e+00,
271,9.57e+00,9.64e+00,
272,9.57e+00,9.60e+00,
273,9.54e+00,9.64e+00,
274,9.57e+00,9.64e+00,
275,9.54e+00,9.60e+00,
276,9.56e+00,9.60e+00,
277,9.52e+00,9.64e+00,
278,9.51e+00,9.59e+00,
279,9.56e+00,9.64e+00,
280,9.53e+00,9.60e+00,
281,9.57e+00,9.64e+00,
282,9.54e+00,9.60e+00,
283,9.57e+00,9.64e+00,
284,9.56e+00,9.59e+00,
285,9.51e+00,9.64e+00,
286,9.54e+00,9.64e+00,
287,9.57e+00,9.60e+00,
288,9.54e+00,9.64e+00,
289,9.57e+00,9.60e+00,
290,9.57e+00,9.64e+00,
291,9.53e+00,9.60e+00,
292,9.56e+00,9.64e+00,
293,9.53e+00,9.59e+00,
294,9.56e+00,9.59e+00,
295,9.53e+00,9.64e+00,
296,9.53e+00,9.64e+00,
297,9.56e+00,9.60e+00,
298,9.57e+00,9.64e+00,
299,9.53e+00,9.60e+00,
300,9.56e+00,9.59e+00,
301,9.52e+00,9.64e+00,
302,9.55e+00,9.64e+00,
303,9.51e+00,9.59e+00,
304,9.55e+00,9.63e+00,
305,9.37e+00,9.58e+00,
306,9.47e+00,9.59e+00,
307,9.55e+00,9.64e+00,
308,9.52e+00,9.59e+00,
309,9.55e+00,9.63e+00,
310,9.51e+00,9.59e+00,
311,9.55e+00,9.64e+00,
312,9.51e+00,9.59e+00,
313,9.55e+00,9.64e+00,
314,9.55e+00,9.64e+00,
315,9.51e+00,9.60e+00,
316,9.54e+00,9.59e+00,
317,9.50e+00,9.63e+00,
318,9.51e+00,9.63e+00,
319,9.54e+00,9.59e+00,
320,9.51e+00,9.64e+00,
321,9.55e+00,9.59e+00,
322,9.54e+00,9.63e+00,
323,9.51e+00,9.59e+00,
324,9.54e+00,9.64e+00,
325,9.51e+00,9.60e+00,
326,9.55e+00,9.64e+00,
327,9.51e+00,9.60e+00,
328,9.54e+00,9.59e+00,
329,9.51e+00,9.63e+00,
330,9.54e+00,9.64e+00,
331,9.51e+00,9.59e+00,
332,9.54e+00,9.64e+00,
333,9.51e+00,9.59e+00,
334,9.54e+00,9.59e+00,
335,9.50e+00,9.64e+00,
336,9.54e+00,9.59e+00,
337,9.50e+00,9.64e+00,
338,9.53e+00,9.63e+00,
339,9.48e+00,9.59e+00,
340,9.51e+00,9.63e+00,
341,9.47e+00,9.59e+00,
342,9.46e+00,9.59e+00,
343,9.51e+00,9.63e+00,
344,9.48e+00,9.63e+00,
345,9.51e+00,9.59e+00,
346,9.47e+00,9.59e+00,
347,9.51e+00,9.63e+00,
348,9.51e+00,9.63e+00,
349,9.47e+00,9.59e+00,
350,9.45e+00,9.58e+00,
351,9.50e+00,9.63e+00,
352,9.47e+00,9.58e+00,
353,9.51e+00,9.63e+00,
354,9.47e+00,9.63e+00,
355,9.50e+00,9.59e+00,
356,9.50e+00,9.58e+00,
357,9.47e+00,9.63e+00,
358,9.50e+00,9.59e+00,
359,9.47e+00,9.63e+00,
360,9.50e+00,9.59e+00,
361,9.47e+00,9.63e+00,
362,9.50e+00,9.63e+00,
363,9.47e+00,9.59e+00,
364,9.50e+00,9.63e+00,
365,9.47e+00,9.59e+00,
366,9.50e+00,9.59e+00,
367,9.47e+00,9.63e+00,
368,9.47e+00,9.58e+00,
369,9.50e+00,9.63e+00,
370,9.47e+00,9.63e+00,
371,9.50e+00,9.58e+00,
372,9.47e+00,9.59e+00,
373,9.50e+00,9.63e+00,
374,9.47e+00,9.63e+00,
375,9.50e+00,9.58e+00,
376,9.47e+00,9.59e+00,
377,9.50e+00,9.63e+00,
378,9.50e+00,9.63e+00,
379,9.46e+00,9.58e+00,
380,9.50e+00,9.63e+00,
381,9.42e+00,9.58e+00,
382,9.41e+00,9.58e+00,
383,9.48e+00,9.62e+00,
384,9.44e+00,9.58e+00,
385,9.41e+00,9.62e+00,
386,9.41e+00,9.58e+00,
387,9.47e+00,9.62e+00,
388,9.45e+00,9.63e+00,
389,9.48e+00,9.59e+00,
390,9.48e+00,9.62e+00,
391,9.45e+00,9.58e+00,
392,9.48e+00,9.63e+00,
393,9.45e+00,9.58e+00,
394,9.41e+00,9.63e+00,
395,9.47e+00,9.58e+00,
396,9.45e+00,9.63e+00,
397,9.48e+00,9.58e+00,
398,9.48e+00,9.62e+00,
399,9.44e+00,9.59e+00,
400,9.45e+00,9.63e+00,
401,9.48e+00,9.58e+00,
402,9.44e+00,9.62e+00,
403,9.48e+00,9.58e+00,
404,9.45e+00,9.58e+00,
405,9.48e+00,9.62e+00,
406,9.48e+00,9.63e+00,
407,9.44e+00,9.59e+00,
408,9.45e+00,9.63e+00,
409,9.48e+00,9.59e+00,
410,9.44e+00,9.63e+00,
411,9.47e+00,9.59e+00,
412,9.44e+00,9.58e+00,
413,9.48e+00,9.63e+00,
414,9.48e+00,9.63e+00,
415,9.44e+00,9.58e+00,
416,9.44e+00,9.62e+00,
417,9.47e+00,9.58e+00,
418,9.47e+00,9.62e+00,
419,9.44e+00,9.58e+00,
420,9.47e+00,9.63e+00,
421,9.44e+00,9.58e+00,
422,9.49e+00,9.63e+00,
423,9.45e+00,9.58e+00,
424,9.49e+00,9.63e+00,
425,9.46e+00,9.59e+00,
426,9.50e+00,9.63e+00,
427,9.42e+00,9.58e+00,
428,9.49e+00,9.62e+00,
429,9.45e+00,9.58e+00,
430,9.44e+00,9.63e+00,
431,9.49e+00,9.59e+00,
432,9.48e+00,9.58e+00,
433,9.45e+00,9.63e+00,
434,9.48e+00,9.63e+00,
435,9.42e+00,9.58e+00,
436,9.44e+00,9.58e+00,
437,9.47e+00,9.62e+00,
438,9.43e+00,9.58e+00,
439,9.47e+00,9.63e+00,
440,9.50e+00,9.62e+00,
441,9.45e+00,9.59e+00,
442,9.43e+00,9.58e+00,
443,9.49e+00,9.63e+00,
444,9.49e+00,9.58e+00,
445,9.45e+00,9.63e+00,
446,9.46e+00,9.59e+00,
447,9.49e+00,9.62e+00,
448,9.49e+00,9.63e+00,
449,9.46e+00,9.59e+00,
450,9.46e+00,9.63e+00,
451,9.49e+00,9.59e+00,
452,9.49e+00,9.58e+00,
453,9.45e+00,9.63e+00,
454,9.46e+00,9.63e+00,
455,9.49e+00,9.59e+00,
456,9.49e+00,9.58e+00,
457,9.46e+00,9.63e+00,
458,9.43e+00,9.58e+00,
459,9.48e+00,9.63e+00,
460,9.45e+00,9.62e+00,
461,9.49e+00,9.59e+00,
462,9.49e+00,9.63e+00,
463,9.46e+00,9.59e+00,
464,9.49e+00,9.63e+00,
465,9.45e+00,9.58e+00,
466,9.49e+00,9.62e+00,
467,9.39e+00,9.58e+00,
468,9.43e+00,9.62e+00,
469,9.48e+00,9.59e+00,
470,9.46e+00,9.59e+00,
471,9.51e+00,9.63e+00,
472,9.47e+00,9.63e+00,
473,9.50e+00,9.58e+00,
474,9.47e+00,9.63e+00,
475,9.51e+00,9.58e+00,
476,9.51e+00,9.63e+00,
477,9.48e+00,9.59e+00,
478,9.51e+00,9.63e+00,
479,9.48e+00,9.58e+00,
480,9.51e+00,9.63e+00,
481,9.48e+00,9.59e+00,
482,9.50e+00,9.63e+00,
483,9.46e+00,9.59e+00,
484,9.48e+00,9.59e+00,
485,9.51e+00,9.63e+00,
486,9.48e+00,9.63e+00,
487,9.51e+00,9.59e+00,
488,9.51e+00,9.63e+00,
489,9.47e+00,9.59e+00,
490,9.46e+00,9.58e+00,
491,9.51e+00,9.63e+00,
492,9.47e+00,9.63e+00,
493,9.50e+00,9.58e+00,
494,9.48e+00,9.63e+00,
495,9.51e+00,9.59e+00,
496,9.50e+00,9.59e+00,
497,9.47e+00,9.63e+00,
498,9.47e+00,9.59e+00,
499,9.51e+00,9.63e+00,
500,9.51e+00,9.59e+00,
501,9.48e+00,9.63e+00,
502,9.48e+00,9.59e+00,
503,9.51e+00,9.63e+00,
504,9.48e+00,9.59e+00,
505,9.51e+00,9.63e+00,
506,9.47e+00,9.63e+00,
507,9.51e+00,9.59e+00,
508,9.48e+00,9.63e+00,
509,9.51e+00,9.59e+00,
510,9.51e+00,9.59e+00,
511,9.47e+00,9.63e+00,
512,9.48e+00,9.63e+00,
513,9.51e+00,9.59e+00,
514,9.51e+00,9.59e+00,
515,9.47e+00,9.63e+00,
516,9.50e+00,9.59e+00,
517,9.47e+00,9.63e+00,
518,9.50e+00,9.59e+00,
519,9.47e+00,9.63e+00,
520,9.47e+00,9.59e+00,
521,9.51e+00,9.63e+00,
522,9.46e+00,9.59e+00,
523,9.51e+00,9.63e+00,
524,9.49e+00,9.59e+00,
525,9.53e+00,9.64e+00,
526,9.52e+00,9.58e+00,
527,9.47e+00,9.63e+00,
528,9.52e+00,9.63e+00,
529,9.48e+00,9.59e+00,
530,9.49e+00,9.63e+00,
531,9.52e+00,9.59e+00,
532,9.52e+00,9.63e+00,
533,9.49e+00,9.60e+00,
534,9.52e+00,9.63e+00,
535,9.49e+00,9.59e+00,
536,9.52e+00,9.59e+00,
537,9.49e+00,9.63e+00,
538,9.51e+00,9.59e+00,
539,9.48e+00,9.63e+00,
540,9.51e+00,9.58e+00,
541,9.47e+00,9.63e+00,
542,9.51e+00,9.63e+00,
543,9.47e+00,9.59e+00,
544,9.47e+00,9.63e+00,
545,9.51e+00,9.59e+00,
546,9.48e+00,9.59e+00,
547,9.51e+00,9.63e+00,
548,9.48e+00,9.63e+00,
549,9.52e+00,9.59e+00,
550,9.50e+00,9.62e+00,
551,9.47e+00,9.58e+00,
552,9.47e+00,9.59e+00,
553,9.50e+00,9.63e+00,
554,9.47e+00,9.63e+00,
555,9.50e+00,9.59e+00,
556,9.50e+00,9.62e+00,
557,9.47e+00,9.59e+00,
558,9.50e+00,9.59e+00,
559,9.47e+00,9.63e+00,
560,9.50e+00,9.63e+00,
561,9.48e+00,9.59e+00,
562,9.47e+00,9.59e+00,
563,9.51e+00,9.63e+00,
564,9.50e+00,9.59e+00,
565,9.46e+00,9.62e+00,
566,9.53e+00,9.63e+00,
567,9.48e+00,9.58e+00,
568,9.48e+00,9.63e+00,
569,9.52e+00,9.59e+00,
570,9.52e+00,9.63e+00,
571,9.47e+00,9.59e+00,
572,9.48e+00,9.63e+00,
573,9.52e+00,9.59e+00,
574,9.48e+00,9.59e+00,
575,9.52e+00,9.63e+00,
576,9.52e+00,9.59e+00,
577,9.48e+00,9.64e+00,
578,9.52e+00,9.63e+00,
579,9.49e+00,9.60e+00,
580,9.47e+00,9.59e+00,
581,9.52e+00,9.63e+00,
582,9.53e+00,9.64e+00,
583,9.44e+00,9.59e+00,
584,9.42e+00,9.62e+00,
585,9.46e+00,9.58e+00,
586,9.41e+00,9.58e+00,
587,9.45e+00,9.62e+00,
588,9.42e+00,9.58e+00,
589,9.46e+00,9.62e+00,
590,9.42e+00,9.62e+00,
591,9.33e+00,9.57e+00,
592,9.28e+00,9.60e+00,
593,9.34e+00,9.55e+00,
594,9.30e+00,9.56e+00,
595,9.42e+00,9.61e+00,
596,9.40e+00,9.61e+00,
597,9.32e+00,9.56e+00,
598,9.37e+00,9.61e+00,
599,9.28e+00,9.56e+00,
600,9.27e+00,9.56e+00,
601,9.35e+00,9.61e+00,
602,9.40e+00,9.61e+00,
603,9.30e+00,9.57e+00,
604,9.35e+00,9.61e+00,
605,9.27e+00,9.56e+00,
606,9.31e+00,9.56e+00,
607,9.26e+00,9.60e+00,
608,9.27e+00,9.61e+00,
609,9.34e+00,9.56e+00,
610,9.37e+00,9.61e+00,
611,9.30e+00,9.56e+00,
612,9.30e+00,9.61e+00,
613,9.37e+00,9.57e+00,
614,9.40e+00,9.61e+00,
615,9.28e+00,9.57e+00,
616,9.26e+00,9.56e+00,
617,9.30e+00,9.60e+00,
618,9.30e+00,9.60e+00,
619,9.27e+00,9.57e+00,
620,9.30e+00,9.60e+00,
621,9.27e+00,9.56e+00,
622,9.27e+00,9.56e+00,
623,9.36e+00,9.61e+00,
624,9.30e+00,9.61e+00,
625,9.37e+00,9.56e+00,
626,9.32e+00,9.57e+00,
627,9.37e+00,9.61e+00,
628,9.35e+00,9.60e+00,
629,9.27e+00,9.56e+00,
630,9.26e+00,9.56e+00,
631,9.37e+00,9.61e+00,
632,9.30e+00,9.56e+00,
633,9.41e+00,9.62e+00,
634,9.37e+00,9.57e+00,
635,9.32e+00,9.61e+00,
636,9.37e+00,9.56e+00,
637,9.29e+00,9.60e+00,
638,9.41e+00,9.61e+00,
639,9.31e+00,9.56e+00,
640,9.37e+00,9.61e+00,
641,9.27e+00,9.56e+00,
642,9.28e+00,9.61e+00,
643,9.32e+00,9.56e+00,
644,9.29e+00,9.57e+00,
645,9.38e+00,9.61e+00,
646,9.41e+00,9.62e+00,
647,9.29e+00,9.57e+00,
648,9.43e+00,9.61e+00,
649,9.31e+00,9.57e+00,
650,9.41e+00,9.61e+00,
651,9.32e+00,9.57e+00,
652,9.42e+00,9.61e+00,
653,9.31e+00,9.57e+00,
654,9.42e+00,9.61e+00,
655,9.30e+00,9.56e+00,
656,9.42e+00,9.61e+00,
657,9.30e+00,9.57e+00,
658,9.29e+00,9.58e+00,
659,9.45e+00,9.62e+00,
660,9.34e+00,9.58e+00,
661,9.40e+00,9.61e+00,
662,9.40e+00,9.61e+00,
663,9.36e+00,9.57e+00,
664,9.42e+00,9.56e+00,
665,9.31e+00,9.61e+00,
666,9.30e+00,9.57e+00,
667,9.41e+00,9.60e+00,
668,9.29e+00,9.56e+00,
669,9.42e+00,9.62e+00,
670,9.31e+00,9.56e+00,
671,9.43e+00,9.62e+00,
672,9.32e+00,9.56e+00,
673,9.46e+00,9.62e+00,
674,9.31e+00,9.56e+00,
675,9.43e+00,9.62e+00,
676,9.30e+00,9.57e+00,
677,9.42e+00,9.61e+00,
678,9.42e+00,9.61e+00,
679,9.30e+00,9.56e+00,
680,9.45e+00,9.62e+00,
681,9.29e+00,9.57e+00,
682,9.31e+00,9.56e+00,
683,9.28e+00,9.60e+00,
684,9.38e+00,9.56e+00,
685,9.30e+00,9.60e+00,
686,9.43e+00,9.57e+00,
687,9.30e+00,9.62e+00,
688,9.30e+00,9.57e+00,
689,9.43e+00,9.62e+00,
690,9.30e+00,9.57e+00,
691,9.42e+00,9.61e+00,
692,9.43e+00,9.61e+00,
693,9.30e+00,9.57e+00,
694,9.42e+00,9.61e+00,
695,9.30e+00,9.56e+00,
696,9.43e+00,9.57e+00,
697,9.30e+00,9.62e+00,
698,9.30e+00,9.56e+00,
699,9.43e+00,9.61e+00,
700,9.30e+00,9.56e+00,
701,9.43e+00,9.62e+00,
702,9.45e+00,9.62e+00,
703,9.30e+00,9.57e+00,
704,9.29e+00,9.56e+00,
705,9.39e+00,9.60e+00,
706,9.41e+00,9.61e+00,
707,9.30e+00,9.56e+00,
708,9.30e+00,9.56e+00,
709,9.43e+00,9.62e+00,
710,9.30e+00,9.56e+00,
711,9.43e+00,9.61e+00,
712,9.41e+00,9.62e+00,
713,9.35e+00,9.57e+00,
714,9.37e+00,9.57e+00,
715,9.33e+00,9.61e+00,
716,9.32e+00,9.61e+00,
717,9.37e+00,9.57e+00,
718,9.34e+00,9.56e+00,
719,9.40e+00,9.61e+00,
720,9.31e+00,9.56e+00,
721,9.37e+00,9.62e+00,
722,9.32e+00,9.57e+00,
723,9.37e+00,9.61e+00,
724,9.33e+00,9.57e+00,
725,9.42e+00,9.63e+00,
726,9.30e+00,9.56e+00,
727,9.39e+00,9.61e+00,
728,9.31e+00,9.61e+00,
729,9.38e+00,9.57e+00,
730,9.41e+00,9.61e+00,
731,9.31e+00,9.56e+00,
732,9.34e+00,9.61e+00,
733,9.30e+00,9.56e+00,
734,9.30e+00,9.56e+00,
735,9.35e+00,9.60e+00,
736,9.43e+00,9.61e+00,
737,9.33e+00,9.57e+00,
738,9.40e+00,9.57e+00,
739,9.31e+00,9.61e+00,
740,9.39e+00,9.56e+00,
741,9.28e+00,9.60e+00,
742,9.28e+00,9.57e+00,
743,9.33e+00,9.60e+00,
744,9.39e+00,9.61e+00,
745,9.32e+00,9.57e+00,
746,9.33e+00,9.57e+00,
747,9.39e+00,9.61e+00,
748,9.38e+00,9.57e+00,
749,9.31e+00,9.61e+00,
750,9.35e+00,9.57e+00,
751,9.51e+00,9.62e+00,
752,9.53e+00,9.59e+00,
753,9.50e+00,9.64e+00,
754,9.53e+00,9.59e+00,
755,9.49e+00,9.63e+00,
756,9.52e+00,9.63e+00,
757,9.46e+00,9.58e+00,
758,9.47e+00,9.59e+00,
759,9.53e+00,9.63e+00,
760,9.53e+00,9.59e+00,
761,9.46e+00,9.63e+00,
762,9.52e+00,9.63e+00,
763,9.49e+00,9.59e+00,
764,9.52e+00,9.58e+00,
765,9.48e+00,9.63e+00,
766,9.48e+00,9.63e+00,
767,9.52e+00,9.59e+00,
768,9.48e+00,9.63e+00,
769,9.52e+00,9.59e+00,
770,9.48e+00,9.63e+00,
771,9.52e+00,9.59e+00,
772,9.47e+00,9.59e+00,
773,9.52e+00,9.64e+00,
774,9.51e+00,9.59e+00,
775,9.48e+00,9.63e+00,
776,9.49e+00,9.58e+00,
777,9.45e+00,9.63e+00,
778,9.45e+00,9.63e+00,
779,9.49e+00,9.59e+00,
780,9.49e+00,9.59e+00,
781,9.46e+00,9.63e+00,
782,9.50e+00,9.63e+00,
783,9.46e+00,9.59e+00,
784,9.50e+00,9.59e+00,
785,9.46e+00,9.62e+00,
786,9.50e+00,9.58e+00,
787,9.46e+00,9.63e+00,
788,9.49e+00,9.59e+00,
789,9.46e+00,9.63e+00,
790,9.46e+00,9.58e+00,
791,9.50e+00,9.62e+00,
792,9.49e+00,9.63e+00,
793,9.46e+00,9.59e+00,
794,9.50e+00,9.59e+00,
795,9.45e+00,9.63e+00,
796,9.49e+00,9.59e+00,
797,9.46e+00,9.63e+00,
798,9.49e+00,9.58e+00,
799,9.46e+00,9.64e+00,
800,9.46e+00,9.58e+00,
801,9.49e+00,9.63e+00,
802,9.45e+00,9.63e+00,
803,9.49e+00,9.59e+00,
804,9.46e+00,9.58e+00,
805,9.49e+00,9.63e+00,
806,9.49e+00,9.63e+00,
807,9.46e+00,9.58e+00,
808,9.49e+00,9.63e+00,
809,9.46e+00,9.59e+00,
810,9.46e+00,9.59e+00,
811,9.50e+00,9.63e+00,
812,9.49e+00,9.58e+00,
813,9.47e+00,9.63e+00,
814,9.47e+00,9.59e+00,
815,9.49e+00,9.63e+00,
816,9.50e+00,9.59e+00,
817,9.46e+00,9.63e+00,
818,9.50e+00,9.63e+00,
819,9.47e+00,9.58e+00,
820,9.46e+00,9.59e+00,
821,9.50e+00,9.63e+00,
822,9.50e+00,9.59e+00,
823,9.46e+00,9.63e+00,
824,9.50e+00,9.59e+00,
825,9.46e+00,9.63e+00,
826,9.47e+00,9.59e+00,
827,9.50e+00,9.63e+00,
828,9.50e+00,9.58e+00,
829,9.47e+00,9.63e+00,
830,9.47e+00,9.59e+00,
831,9.50e+00,9.63e+00,
832,9.50e+00,9.58e+00,
833,9.46e+00,9.63e+00,
834,9.49e+00,9.59e+00,
835,9.47e+00,9.63e+00,
836,9.46e+00,9.63e+00,
837,9.50e+00,9.59e+00,
838,9.47e+00,9.63e+00,
839,9.50e+00,9.58e+00,
840,9.50e+00,9.62e+00,
841,9.46e+00,9.58e+00,
842,9.45e+00,9.58e+00,
843,9.50e+00,9.63e+00,
844,9.50e+00,9.59e+00,
845,9.46e+00,9.63e+00,
846,9.45e+00,9.63e+00,
847,9.50e+00,9.58e+00,
848,9.47e+00,9.63e+00,
849,9.50e+00,9.59e+00,
850,9.50e+00,9.62e+00,
851,9.46e+00,9.58e+00,
852,9.50e+00,9.59e+00,
853,9.47e+00,9.63e+00,
854,9.50e+00,9.63e+00,
855,9.47e+00,9.59e+00,
856,9.46e+00,9.63e+00,
857,9.50e+00,9.59e+00,
858,9.47e+00,9.63e+00,
859,9.50e+00,9.58e+00,
860,9.50e+00,9.59e+00,
861,9.46e+00,9.63e+00,
862,9.46e+00,9.58e+00,
863,9.50e+00,9.63e+00,
864,9.50e+00,9.59e+00,
865,9.46e+00,9.63e+00,
866,9.49e+00,9.59e+00,
867,9.45e+00,9.62e+00,
868,9.46e+00,9.59e+00,
869,9.49e+00,9.63e+00,
870,9.49e+00,9.58e+00,
